{
  "statusCode": 200,
  "headers": {
    "Vary": [
      "Origin",
      "Access-Control-Request-Method",
      "Access-Control-Request-Headers"
    ],
    "Content-Length": "0",
    "Date": "Wed, 27 Nov 2024 19:59:16 GMT",
    "Via": "1.1 google",
    "Alt-Svc": "h3=\":443\"; ma=2592000,h3-29=\":443\"; ma=2592000"
  },
  "data": {
    "current_page": 1,
    "data": [
      {
        "sender_id": "ACME Key",
        "status": "unblock",
        "company": "ACME",
        "usecase": null,
        "country": null,
        "created_at": "2021-03-29 16:51:53"
      },
      {
        "sender_id": "ACME Alert",
        "status": "unblock",
        "company": "ACME",
        "usecase": null,
        "country": null,
        "created_at": "2021-03-29 16:51:09"
      },
      {
        "sender_id": "ACME Wall",
        "status": "unblock",
        "company": "ACME",
        "usecase": null,
        "country": null,
        "created_at": "2021-03-29 16:50:38"
      },
      {
        "sender_id": "Hooli",
        "status": "unblock",
        "company": "Hooli",
        "usecase": null,
        "country": null,
        "created_at": "2021-03-26 13:19:16"
      },
      {
        "sender_id": "Google",
        "status": "unblock",
        "company": null,
        "usecase": null,
        "country": null,
        "created_at": "2021-01-19 17:41:30"
      },
      {
        "sender_id": "Facebook",
        "status": "unblock",
        "company": null,
        "usecase": null,
        "country": null,
        "created_at": "2021-01-19 17:41:14"
      }
    ],
    "first_page_url": "https://BASE_URL/api/sender-id?page=1",
    "from": 1,
    "last_page": 47,
    "last_page_url": "https://BASE_URL/api/sender-id?page=47",
    "next_page_url": "https://BASE_URL/api/sender-id?page=2",
    "path": "https://BASE_URL/api/sender-id",
    "per_page": 10,
    "prev_page_url": null,
    "to": 15,
    "total": 704
  }
}